mc20_13TeV.410471.PhPy8EG_A14_ttbar_hdamp258p75_allhad.deriv.DAOD_LLJ1.e6337_s3681_r13167_p6453
mc20_13TeV.410471.PhPy8EG_A14_ttbar_hdamp258p75_allhad.deriv.DAOD_LLJ1.e6337_s3681_r13144_p6453
mc20_13TeV.410471.PhPy8EG_A14_ttbar_hdamp258p75_allhad.deriv.DAOD_LLJ1.e6337_s3681_r13145_p6453
