mc20_13TeV.364336.Sherpa_222_NNPDF30NNLO_WpWpWn_sslvlvjj_EW6.deriv.DAOD_PHYS.e6377_s3681_r13167_p6490
mc20_13TeV.364336.Sherpa_222_NNPDF30NNLO_WpWpWn_sslvlvjj_EW6.deriv.DAOD_PHYS.e6377_s3681_r13144_p6490
mc20_13TeV.364336.Sherpa_222_NNPDF30NNLO_WpWpWn_sslvlvjj_EW6.deriv.DAOD_PHYS.e6377_s3681_r13145_p6490
mc20_13TeV.364337.Sherpa_222_NNPDF30NNLO_WnWnWp_sslvlvjj_EW6.deriv.DAOD_PHYS.e6377_s3681_r13167_p6490
mc20_13TeV.364337.Sherpa_222_NNPDF30NNLO_WnWnWp_sslvlvjj_EW6.deriv.DAOD_PHYS.e6377_s3681_r13144_p6490
mc20_13TeV.364337.Sherpa_222_NNPDF30NNLO_WnWnWp_sslvlvjj_EW6.deriv.DAOD_PHYS.e6377_s3681_r13145_p6490
