mc23_13p6TeV.542841.MGPy8EG_hh_bbtt_vbf_novhh_5fs_l1cvv1cv1_hh.deriv.DAOD_PHYS.e8562_s4159_r15224_p6026
mc23_13p6TeV.542841.MGPy8EG_hh_bbtt_vbf_novhh_5fs_l1cvv1cv1_hh.deriv.DAOD_PHYS.e8562_s4162_r14622_p6026

mc23_13p6TeV.542844.MGPy8EG_hh_bbtt_vbf_novhh_5fs_l1cvv1p5cv1_hh.deriv.DAOD_PHYS.e8562_s4159_r15224_p6026
mc23_13p6TeV.542844.MGPy8EG_hh_bbtt_vbf_novhh_5fs_l1cvv1p5cv1_hh.deriv.DAOD_PHYS.e8562_s4162_r14622_p6026

mc23_13p6TeV.542845.MGPy8EG_hh_bbtt_vbf_novhh_5fs_l2cvv1cv1_hh.deriv.DAOD_PHYS.e8562_s4159_r15224_p6026
mc23_13p6TeV.542845.MGPy8EG_hh_bbtt_vbf_novhh_5fs_l2cvv1cv1_hh.deriv.DAOD_PHYS.e8562_s4162_r14622_p6026

mc23_13p6TeV.542846.MGPy8EG_hh_bbtt_vbf_novhh_5fs_l10cvv1cv1_hh.deriv.DAOD_PHYS.e8562_s4159_r15224_p6026
mc23_13p6TeV.542846.MGPy8EG_hh_bbtt_vbf_novhh_5fs_l10cvv1cv1_hh.deriv.DAOD_PHYS.e8562_s4162_r14622_p6026

mc23_13p6TeV.542842.MGPy8EG_hh_bbtt_vbf_novhh_5fs_l1cvv1cv0p5_hh.deriv.DAOD_PHYS.e8562_s4159_r15224_p6026
mc23_13p6TeV.542842.MGPy8EG_hh_bbtt_vbf_novhh_5fs_l1cvv1cv0p5_hh.deriv.DAOD_PHYS.e8562_s4162_r14622_p6026

mc23_13p6TeV.542847.MGPy8EG_hh_bbtt_vbf_novhh_5fs_lm5cvv1cv0p5_hh.deriv.DAOD_PHYS.e8562_s4159_r15224_p6026
mc23_13p6TeV.542847.MGPy8EG_hh_bbtt_vbf_novhh_5fs_lm5cvv1cv0p5_hh.deriv.DAOD_PHYS.e8562_s4162_r14622_p6026

mc23_13p6TeV.542840.MGPy8EG_hh_bbtt_vbf_novhh_5fs_l1cvv0cv1_hh.deriv.DAOD_PHYS.e8562_s4159_r15224_p6026
mc23_13p6TeV.542840.MGPy8EG_hh_bbtt_vbf_novhh_5fs_l1cvv0cv1_hh.deriv.DAOD_PHYS.e8562_s4162_r14622_p6026

mc23_13p6TeV.542839.MGPy8EG_hh_bbtt_vbf_novhh_5fs_l0cvv1cv1_hh.deriv.DAOD_PHYS.e8562_s4159_r15224_p6026
mc23_13p6TeV.542839.MGPy8EG_hh_bbtt_vbf_novhh_5fs_l0cvv1cv1_hh.deriv.DAOD_PHYS.e8562_s4162_r14622_p6026

mc23_13p6TeV.542843.MGPy8EG_hh_bbtt_vbf_novhh_5fs_l1cvv2cv1_hh.deriv.DAOD_PHYS.e8562_s4159_r15224_p6026
mc23_13p6TeV.542843.MGPy8EG_hh_bbtt_vbf_novhh_5fs_l1cvv2cv1_hh.deriv.DAOD_PHYS.e8562_s4162_r14622_p6026

mc23_13p6TeV.542850.MGPy8EG_hh_bbtt_vbf_novhh_5fs_l1cvv1cv1_lh.deriv.DAOD_PHYS.e8562_s4159_r15224_p6026
mc23_13p6TeV.542850.MGPy8EG_hh_bbtt_vbf_novhh_5fs_l1cvv1cv1_lh.deriv.DAOD_PHYS.e8562_s4162_r14622_p6026

mc23_13p6TeV.542853.MGPy8EG_hh_bbtt_vbf_novhh_5fs_l1cvv1p5cv1_lh.deriv.DAOD_PHYS.e8562_s4159_r15224_p6026
mc23_13p6TeV.542853.MGPy8EG_hh_bbtt_vbf_novhh_5fs_l1cvv1p5cv1_lh.deriv.DAOD_PHYS.e8562_s4162_r14622_p6026

mc23_13p6TeV.542854.MGPy8EG_hh_bbtt_vbf_novhh_5fs_l2cvv1cv1_lh.deriv.DAOD_PHYS.e8562_s4159_r15224_p6026
mc23_13p6TeV.542854.MGPy8EG_hh_bbtt_vbf_novhh_5fs_l2cvv1cv1_lh.deriv.DAOD_PHYS.e8562_s4162_r14622_p6026

mc23_13p6TeV.542855.MGPy8EG_hh_bbtt_vbf_novhh_5fs_l10cvv1cv1_lh.deriv.DAOD_PHYS.e8562_s4159_r15224_p6026
mc23_13p6TeV.542855.MGPy8EG_hh_bbtt_vbf_novhh_5fs_l10cvv1cv1_lh.deriv.DAOD_PHYS.e8562_s4162_r14622_p6026

mc23_13p6TeV.542851.MGPy8EG_hh_bbtt_vbf_novhh_5fs_l1cvv1cv0p5_lh.deriv.DAOD_PHYS.e8562_s4159_r15224_p6026
mc23_13p6TeV.542851.MGPy8EG_hh_bbtt_vbf_novhh_5fs_l1cvv1cv0p5_lh.deriv.DAOD_PHYS.e8562_s4162_r14622_p6026

mc23_13p6TeV.542856.MGPy8EG_hh_bbtt_vbf_novhh_5fs_l5mcvv1cv0p5_lh.deriv.DAOD_PHYS.e8562_s4159_r15224_p6026
mc23_13p6TeV.542856.MGPy8EG_hh_bbtt_vbf_novhh_5fs_l5mcvv1cv0p5_lh.deriv.DAOD_PHYS.e8562_s4162_r14622_p6026

mc23_13p6TeV.542849.MGPy8EG_hh_bbtt_vbf_novhh_5fs_l1cvv0cv1_lh.deriv.DAOD_PHYS.e8562_s4159_r15224_p6026
mc23_13p6TeV.542849.MGPy8EG_hh_bbtt_vbf_novhh_5fs_l1cvv0cv1_lh.deriv.DAOD_PHYS.e8562_s4162_r14622_p6026

mc23_13p6TeV.542848.MGPy8EG_hh_bbtt_vbf_novhh_5fs_l0cvv1cv1_lh.deriv.DAOD_PHYS.e8562_s4159_r15224_p6026
mc23_13p6TeV.542848.MGPy8EG_hh_bbtt_vbf_novhh_5fs_l0cvv1cv1_lh.deriv.DAOD_PHYS.e8562_s4162_r14622_p6026

mc23_13p6TeV.542852.MGPy8EG_hh_bbtt_vbf_novhh_5fs_l1cvv2cv1_lh.deriv.DAOD_PHYS.e8562_s4159_r15224_p6026
mc23_13p6TeV.542852.MGPy8EG_hh_bbtt_vbf_novhh_5fs_l1cvv2cv1_lh.deriv.DAOD_PHYS.e8562_s4162_r14622_p6026
